
int a =91;

function int fib(int ile) 
begin
	int a = 0;
	int b = 1;
	int ktora = 0;
	int pom;
	while ile > b do
		pom = a;
		a = b;
		b += pom;
		ktora+=1;
	endwhile;
	if b == ile then
		return ktora;
	else 
		return -1;
	endif;

end;

for (int b = 85; b<a;b++)
	print b;
	print fib(b);
endfor;

