function int suma(int r, int s)
begin
	return r+s;
end;

int a =10;
print (-a++ + -2 - -a++);
print a;
int b =5;
print (-suma(a,b--)+suma(a,b++));
print (suma(a,b)/suma(a/2,b++/2));
print (a++*b+b*a-- - a*a);
